[
  {
    "id": 2095271,
    "iid": 65,
    "group_id": 9970,
    "title": "15.0",
    "description": "",
    "state": "active",
    "created_at": "2021-06-08T15:35:34.814Z",
    "updated_at": "2021-11-02T18:23:35.115Z",
    "due_date": "2022-05-17",
    "start_date": "2022-04-18",
    "expired": true,
    "web_url": "https://gitlab.com/groups/gitlab-org/-/milestones/65"
  },
  {
    "id": 2453022,
    "iid": 73,
    "group_id": 9970,
    "title": "15.1",
    "description": "",
    "state": "active",
    "created_at": "2022-02-03T22:23:29.335Z",
    "updated_at": "2022-02-03T22:23:29.335Z",
    "due_date": "2022-06-17",
    "start_date": "2022-05-18",
    "expired": true,
    "web_url": "https://gitlab.com/groups/gitlab-org/-/milestones/73"
  },
  {
    "id": 2453024,
    "iid": 74,
    "group_id": 9970,
    "title": "15.2",
    "description": "",
    "state": "active",
    "created_at": "2022-02-03T22:24:46.818Z",
    "updated_at": "2022-02-03T22:26:32.010Z",
    "due_date": "2022-07-17",
    "start_date": "2022-06-18",
    "expired": true,
    "web_url": "https://gitlab.com/groups/gitlab-org/-/milestones/74"
  },
  {
    "id": 2453025,
    "iid": 75,
    "group_id": 9970,
    "title": "15.3",
    "description": "",
    "state": "active",
    "created_at": "2022-02-03T22:28:50.229Z",
    "updated_at": "2022-02-03T22:28:50.229Z",
    "due_date": "2022-08-17",
    "start_date": "2022-07-18",
    "expired": true,
    "web_url": "https://gitlab.com/groups/gitlab-org/-/milestones/75"
  },
  {
    "id": 2453026,
    "iid": 76,
    "group_id": 9970,
    "title": "15.4",
    "description": "[GitLab 15.4 Release](https://gitlab.com/gitlab-org/gitlab/-/releases/v15.4.0-ee)",
    "state": "active",
    "created_at": "2022-02-03T22:29:22.015Z",
    "updated_at": "2022-09-29T02:21:26.561Z",
    "due_date": "2022-09-17",
    "start_date": "2022-08-18",
    "expired": true,
    "web_url": "https://gitlab.com/groups/gitlab-org/-/milestones/76"
  },
  {
    "id": 2453027,
    "iid": 77,
    "group_id": 9970,
    "title": "15.5",
    "description": "",
    "state": "active",
    "created_at": "2022-02-03T22:29:56.909Z",
    "updated_at": "2022-02-03T22:29:56.909Z",
    "due_date": "2022-10-17",
    "start_date": "2022-09-18",
    "expired": true,
    "web_url": "https://gitlab.com/groups/gitlab-org/-/milestones/77"
  },
  {
    "id": 2687593,
    "iid": 81,
    "group_id": 9970,
    "title": "15.6",
    "description": "",
    "state": "active",
    "created_at": "2022-07-06T19:22:27.893Z",
    "updated_at": "2022-07-06T19:22:27.893Z",
    "due_date": "2022-11-17",
    "start_date": "2022-10-18",
    "expired": true,
    "web_url": "https://gitlab.com/groups/gitlab-org/-/milestones/81"
  },
  {
    "id": 2717597,
    "iid": 82,
    "group_id": 9970,
    "title": "15.7",
    "description": "",
    "state": "active",
    "created_at": "2022-07-29T14:48:31.199Z",
    "updated_at": "2022-07-29T14:48:31.199Z",
    "due_date": "2022-12-17",
    "start_date": "2022-11-18",
    "expired": true,
    "web_url": "https://gitlab.com/groups/gitlab-org/-/milestones/82"
  },
  {
    "id": 2745648,
    "iid": 83,
    "group_id": 9970,
    "title": "15.8",
    "description": "",
    "state": "active",
    "created_at": "2022-08-22T16:57:34.875Z",
    "updated_at": "2022-08-22T16:57:34.875Z",
    "due_date": "2023-01-17",
    "start_date": "2022-12-18",
    "expired": true,
    "web_url": "https://gitlab.com/groups/gitlab-org/-/milestones/83"
  },
  {
    "id": 2745650,
    "iid": 84,
    "group_id": 9970,
    "title": "15.9",
    "description": "",
    "state": "active",
    "created_at": "2022-08-22T16:58:02.303Z",
    "updated_at": "2022-08-22T16:58:02.303Z",
    "due_date": "2023-02-17",
    "start_date": "2023-01-18",
    "expired": true,
    "web_url": "https://gitlab.com/groups/gitlab-org/-/milestones/84"
  },
  {
    "id": 2745651,
    "iid": 85,
    "group_id": 9970,
    "title": "15.10",
    "description": "",
    "state": "active",
    "created_at": "2022-08-22T16:58:22.132Z",
    "updated_at": "2022-08-22T16:58:22.132Z",
    "due_date": "2023-03-17",
    "start_date": "2023-02-18",
    "expired": true,
    "web_url": "https://gitlab.com/groups/gitlab-org/-/milestones/85"
  },
  {
    "id": 2910456,
    "iid": 86,
    "group_id": 9970,
    "title": "15.11",
    "description": "",
    "state": "active",
    "created_at": "2022-12-13T20:08:46.985Z",
    "updated_at": "2022-12-13T20:08:46.985Z",
    "due_date": "2023-04-17",
    "start_date": "2023-03-18",
    "expired": true,
    "web_url": "https://gitlab.com/groups/gitlab-org/-/milestones/86"
  },
  {
    "id": 2633524,
    "iid": 80,
    "group_id": 9970,
    "title": "16.0",
    "description": "",
    "state": "active",
    "created_at": "2022-05-30T16:25:25.778Z",
    "updated_at": "2022-05-30T16:25:25.778Z",
    "due_date": "2023-05-17",
    "start_date": "2023-04-18",
    "expired": true,
    "web_url": "https://gitlab.com/groups/gitlab-org/-/milestones/80"
  },
  {
    "id": 2969659,
    "iid": 88,
    "group_id": 9970,
    "title": "16.1",
    "description": "",
    "state": "active",
    "created_at": "2023-02-01T16:02:12.169Z",
    "updated_at": "2023-02-01T16:02:12.169Z",
    "due_date": "2023-06-17",
    "start_date": "2023-05-18",
    "expired": true,
    "web_url": "https://gitlab.com/groups/gitlab-org/-/milestones/88"
  },
  {
    "id": 2969672,
    "iid": 89,
    "group_id": 9970,
    "title": "16.2",
    "description": "",
    "state": "active",
    "created_at": "2023-02-01T16:03:02.095Z",
    "updated_at": "2023-02-01T16:03:02.095Z",
    "due_date": "2023-07-17",
    "start_date": "2023-06-18",
    "expired": true,
    "web_url": "https://gitlab.com/groups/gitlab-org/-/milestones/89"
  },
  {
    "id": 2969682,
    "iid": 90,
    "group_id": 9970,
    "title": "16.3",
    "description": "",
    "state": "active",
    "created_at": "2023-02-01T16:03:42.396Z",
    "updated_at": "2023-02-01T16:03:42.396Z",
    "due_date": "2023-08-17",
    "start_date": "2023-07-18",
    "expired": true,
    "web_url": "https://gitlab.com/groups/gitlab-org/-/milestones/90"
  },
  {
    "id": 2969687,
    "iid": 91,
    "group_id": 9970,
    "title": "16.4",
    "description": "",
    "state": "active",
    "created_at": "2023-02-01T16:04:08.086Z",
    "updated_at": "2023-02-01T16:04:08.086Z",
    "due_date": "2023-09-17",
    "start_date": "2023-08-18",
    "expired": true,
    "web_url": "https://gitlab.com/groups/gitlab-org/-/milestones/91"
  },
  {
    "id": 3094093,
    "iid": 92,
    "group_id": 9970,
    "title": "16.5",
    "description": "",
    "state": "active",
    "created_at": "2023-05-09T04:49:42.387Z",
    "updated_at": "2023-05-09T04:49:42.387Z",
    "due_date": "2023-10-17",
    "start_date": "2023-09-18",
    "expired": true,
    "web_url": "https://gitlab.com/groups/gitlab-org/-/milestones/92"
  },
  {
    "id": 3094094,
    "iid": 93,
    "group_id": 9970,
    "title": "16.6",
    "description": "",
    "state": "active",
    "created_at": "2023-05-09T04:50:08.194Z",
    "updated_at": "2023-08-22T21:35:28.795Z",
    "due_date": "2023-11-10",
    "start_date": "2023-10-18",
    "expired": false,
    "web_url": "https://gitlab.com/groups/gitlab-org/-/milestones/93"
  },
  {
    "id": 3196804,
    "iid": 94,
    "group_id": 9970,
    "title": "Git 2.47",
    "description": "",
    "state": "active",
    "created_at": "2023-07-26T15:55:18.497Z",
    "updated_at": "2023-08-22T21:35:55.884Z",
    "due_date": "2023-12-15",
    "start_date": "2023-11-11",
    "expired": false,
    "web_url": "https://gitlab.com/groups/gitlab-org/-/milestones/95"
  },
  {
    "id": 3196804,
    "iid": 95,
    "group_id": 9970,
    "title": "16.7",
    "description": "",
    "state": "active",
    "created_at": "2023-07-26T15:55:18.497Z",
    "updated_at": "2023-08-22T21:35:55.884Z",
    "due_date": "2023-12-15",
    "start_date": "2023-11-11",
    "expired": false,
    "web_url": "https://gitlab.com/groups/gitlab-org/-/milestones/95"
  }
]
